<?xml version="1.0" encoding="UTF-8"?>
<svg xmlns="http://www.w3.org/2000/svg" xmlns:cc="http://creativecommons.org/ns#" xmlns:dc="http://purl.org/dc/elements/1.1/" xmlns:rdf="http://www.w3.org/1999/02/22-rdf-syntax-ns#" xmlns:svg="http://www.w3.org/2000/svg" xmlns:xlink="http://www.w3.org/1999/xlink" viewBox="0 0 744.02502 1052.5" height="842pt" width="595.22pt" xml:space="preserve" version="1.1" id="svg2"><metadata id="metadata8"><rdf:RDF><cc:Work rdf:about=""><dc:format>image/svg+xml</dc:format><dc:type rdf:resource="http://purl.org/dc/dcmitype/StillImage" /></cc:Work></rdf:RDF></metadata><defs id="defs6"><pattern id="pattern12" height="1" width="1" y="0" x="0" patternUnits="userSpaceOnUse" patternTransform="matrix(0.96,0,0,-0.96,144.60001,222.99)"><defs id="defs14"><mask id="_mask0" height="1" width="1" y="0" x="0" maskUnits="userSpaceOnUse"><image id="image17" xlink:href="data:image/png;base64,iVBORw0KGgoAAAANSUhEUgAAAAgAAAAICAAAAADhZOFXAAAAAXNCSVQI5gpbmQAAABlJREFUCJlj+P+fgYGBgYGBiQE/+P8frxoAyjIEAS/9a2oAAAAASUVORK5CYII=" preserveAspectRatio="none" height="1" width="1" /></mask></defs><path id="path19" style="fill:#ffffff;fill-opacity:1;fill-rule:nonzero;stroke:none" d="M 1,0 0,0 0,1 1,1 1,0 Z" /><g id="g21" transform="matrix(1,0,0,-1,0,1)"><rect id="rect23" mask="url(#_mask0)" style="fill:#000000;fill-opacity:1;fill-rule:nonzero" transform="matrix(1,0,0,-1,0,1)" height="1" width="1" y="0" x="0" /></g></pattern><pattern id="pattern27" height="1" width="1" y="0" x="0" patternUnits="userSpaceOnUse" patternTransform="matrix(0.96,0,0,-0.96,144.60001,222.99)"><defs id="defs29"><mask id="_mask1" height="1" width="1" y="0" x="0" maskUnits="userSpaceOnUse"><image id="image32" xlink:href="data:image/png;base64,iVBORw0KGgoAAAANSUhEUgAAAAgAAAAICAAAAADhZOFXAAAAAXNCSVQI5gpbmQAAABlJREFUCJlj+P+fgYGBgYGBiQE/+P8frxoAyjIEAS/9a2oAAAAASUVORK5CYII=" preserveAspectRatio="none" height="1" width="1" /></mask></defs><path id="path34" style="fill:#ffffff;fill-opacity:1;fill-rule:nonzero;stroke:none" d="M 1,0 0,0 0,1 1,1 1,0 Z" /><g id="g36" transform="matrix(1,0,0,-1,0,1)"><rect id="rect38" mask="url(#_mask1)" style="fill:#000000;fill-opacity:1;fill-rule:nonzero" transform="matrix(1,0,0,-1,0,1)" height="1" width="1" y="0" x="0" /></g></pattern><pattern id="pattern42" height="1" width="1" y="0" x="0" patternUnits="userSpaceOnUse" patternTransform="matrix(0.96,0,0,-0.96,144.60001,222.99)"><defs id="defs44"><mask id="_mask2" height="1" width="1" y="0" x="0" maskUnits="userSpaceOnUse"><image id="image47" xlink:href="data:image/png;base64,iVBORw0KGgoAAAANSUhEUgAAAAgAAAAICAAAAADhZOFXAAAAAXNCSVQI5gpbmQAAABlJREFUCJlj+P+fgYGBgYGBiQE/+P8frxoAyjIEAS/9a2oAAAAASUVORK5CYII=" preserveAspectRatio="none" height="1" width="1" /></mask></defs><path id="path49" style="fill:#ffffff;fill-opacity:1;fill-rule:nonzero;stroke:none" d="M 1,0 0,0 0,1 1,1 1,0 Z" /><g id="g51" transform="matrix(1,0,0,-1,0,1)"><rect id="rect53" mask="url(#_mask2)" style="fill:#000000;fill-opacity:1;fill-rule:nonzero" transform="matrix(1,0,0,-1,0,1)" height="1" width="1" y="0" x="0" /></g></pattern><pattern id="pattern57" height="1" width="1" y="0" x="0" patternUnits="userSpaceOnUse" patternTransform="matrix(0.96,0,0,-0.96,144.60001,222.99)"><defs id="defs59"><mask id="_mask3" height="1" width="1" y="0" x="0" maskUnits="userSpaceOnUse"><image id="image62" xlink:href="data:image/png;base64,iVBORw0KGgoAAAANSUhEUgAAAAgAAAAICAAAAADhZOFXAAAAAXNCSVQI5gpbmQAAABlJREFUCJlj+P+fgYGBgYGBiQE/+P8frxoAyjIEAS/9a2oAAAAASUVORK5CYII=" preserveAspectRatio="none" height="1" width="1" /></mask></defs><path id="path64" style="fill:#ffffff;fill-opacity:1;fill-rule:nonzero;stroke:none" d="M 1,0 0,0 0,1 1,1 1,0 Z" /><g id="g66" transform="matrix(1,0,0,-1,0,1)"><rect id="rect68" mask="url(#_mask3)" style="fill:#000000;fill-opacity:1;fill-rule:nonzero" transform="matrix(1,0,0,-1,0,1)" height="1" width="1" y="0" x="0" /></g></pattern><pattern id="pattern72" height="1" width="1" y="0" x="0" patternUnits="userSpaceOnUse" patternTransform="matrix(0.96,0,0,-0.96,144.60001,222.99)"><defs id="defs74"><mask id="_mask4" height="1" width="1" y="0" x="0" maskUnits="userSpaceOnUse"><image id="image77" xlink:href="data:image/png;base64,iVBORw0KGgoAAAANSUhEUgAAAAgAAAAICAAAAADhZOFXAAAAAXNCSVQI5gpbmQAAABlJREFUCJlj+P+fgYGBgYGBiQE/+P8frxoAyjIEAS/9a2oAAAAASUVORK5CYII=" preserveAspectRatio="none" height="1" width="1" /></mask></defs><path id="path79" style="fill:#ffffff;fill-opacity:1;fill-rule:nonzero;stroke:none" d="M 1,0 0,0 0,1 1,1 1,0 Z" /><g id="g81" transform="matrix(1,0,0,-1,0,1)"><rect id="rect83" mask="url(#_mask4)" style="fill:#000000;fill-opacity:1;fill-rule:nonzero" transform="matrix(1,0,0,-1,0,1)" height="1" width="1" y="0" x="0" /></g></pattern></defs><g transform="matrix(1.25,0,0,-1.25,0,1052.5)" id="g10"><path id="path25" style="fill:url(#pattern12);fill-opacity:1;fill-rule:evenodd;stroke:#000000;stroke-width:0.72000003;stroke-linecap:round;stroke-linejoin:miter;stroke-miterlimit:10;stroke-dasharray:none;stroke-opacity:1" d="m 549.9,541.52 -510.24,0 0,-16.98 510.24,0 0,16.98 z" /><path id="path40" style="fill:url(#pattern27);fill-opacity:1;fill-rule:evenodd;stroke:#000000;stroke-width:0.72000003;stroke-linecap:round;stroke-linejoin:miter;stroke-miterlimit:10;stroke-dasharray:none;stroke-opacity:1" d="m 550.08,805.16 -510.42,0 0,-17.04 510.42,0 0,17.04 z" /><path id="path55" style="fill:url(#pattern42);fill-opacity:1;fill-rule:evenodd;stroke:#000000;stroke-width:0.72000003;stroke-linecap:round;stroke-linejoin:miter;stroke-miterlimit:10;stroke-dasharray:none;stroke-opacity:1" d="m 550.08,745.64 -510.42,0 0,-17.04 510.42,0 0,17.04 z" /><path id="path70" style="fill:url(#pattern57);fill-opacity:1;fill-rule:evenodd;stroke:#000000;stroke-width:0.72000003;stroke-linecap:round;stroke-linejoin:miter;stroke-miterlimit:10;stroke-dasharray:none;stroke-opacity:1" d="m 550.08,654.92 -510.42,0 0,-17.04 510.42,0 0,17.04 z" /><path id="path85" style="fill:url(#pattern72);fill-opacity:1;fill-rule:evenodd;stroke:#000000;stroke-width:0.72000003;stroke-linecap:round;stroke-linejoin:miter;stroke-miterlimit:10;stroke-dasharray:none;stroke-opacity:1" d="m 549.9,201.38 -510.24,0 0,-17.04 510.24,0 0,17.04 z" /><path id="path87" style="fill:none;stroke:#000000;stroke-width:0.72000003;stroke-linecap:round;stroke-linejoin:miter;stroke-miterlimit:10;stroke-dasharray:none;stroke-opacity:1" d="m 550.08,524.54 -510.42,0 0,-317.52 510.42,0 0,317.52 z m 0,263.58 -510.42,0 0,-36.84 510.42,0 0,36.84 z m 0,-59.52 -510.42,0 0,-70.86 510.42,0 0,70.86 z m 0,-90.72 -510.42,0 0,-87.84 510.42,0 0,87.84 z m 0,-453.48 -510.42,0 0,-127.62 510.42,0 0,127.62 z" /><text id="text89" style="font-variant:normal;font-weight:bold;font-stretch:normal;font-size:10.97999954px;font-family:Arial;-inkscape-font-specification:Arial-BoldMT;writing-mode:lr-tb;fill:#000000;fill-opacity:1;fill-rule:nonzero;stroke:none" transform="matrix(1,0,0,-1,45.36,528.7404)"><tspan id="tspan91" y="0" x="0 3.0908699 11.05686 17.718426 26.300394 34.266384 43.386372 51.352364 59.270039 62.360909 70.94178 81.979973 89.897652 97.86364 100.95451 108.87219 111.93451 120.51538 128.48137 136.39905">INFORMACIÓNADICIONAL</tspan></text>
<text id="text93" style="font-variant:normal;font-weight:bold;font-stretch:normal;font-size:10.02000046px;font-family:Arial;-inkscape-font-specification:Arial-BoldMT;writing-mode:lr-tb;fill:#000000;fill-opacity:1;fill-rule:nonzero;stroke:none" transform="matrix(1,0,0,-1,42.54,508.7003)"><tspan id="tspan95" y="0" x="0 2.761512">i.</tspan></text>
<text id="text97" style="font-variant:normal;font-weight:normal;font-stretch:normal;font-size:6px;font-family:Arial;-inkscape-font-specification:ArialMT;writing-mode:lr-tb;fill:#000000;fill-opacity:1;fill-rule:nonzero;stroke:none" transform="matrix(1,0,0,-1,39.66,37.0403)"><tspan id="tspan99" y="0" x="0 1.6812 6 9.3023996 12.6048 17.583599 21.243601 25.2036 30.1824 33.8424 38.1408 41.443199 44.443199 45.762001 49.0644 54.104401 57.406799 59.371201 64.349998 67.652397 70.954803 74.257202 490.38 495.3588 498.65759 503.63641 506.93579">IC961-V4-Noviembre20182de19</tspan></text>
<text id="text101" style="font-variant:normal;font-weight:normal;font-stretch:normal;font-size:10.97999954px;font-family:Arial;-inkscape-font-specification:ArialMT;writing-mode:lr-tb;fill:#000000;fill-opacity:1;fill-rule:nonzero;stroke:none" transform="matrix(1,0,0,-1,56.7,472.0403)"><tspan id="tspan103" y="0" x="0 6.1180558 21.776634 29.11347 36.450306 43.787144 52.342758 60.283493 68.224228 75.561066 83.501801 92.057419 99.998154 116.85794 122.976 138.03616 141.70569 147.82375 153.32692 159.44498 165.56303 171.68109 177.18427 183.30232 189.42036 191.87111 207.52969 213.64774 229.30632 232.36864 238.48669 244.60475 250.72281 265.7226 268.17331 274.29138 289.35156 295.4696 299.13913 302.80862 308.9267 312.59622 318.71426 333.77444 348.7742 354.89227 364.05179 366.50253 372.00571 374.45642 380.57449 386.69254 392.81061 407.87076 413.98883 420.10687 435.70508 438.15579 444.27386 449.77704 455.89508 459.56461 463.23413 478.8927 485.01074">LaASEGURADORAesresponsabledetodosloserroresyomisionesqueincurrael</tspan><tspan id="tspan105" y="10.259712" x="0 7.93854 14.0544 23.21172 29.327579 32.9949 38.49588 40.94442 47.06028 49.50882 51.957359 57.45834 63.5742 69.690063 75.805923 79.473244">Comercializador.</tspan><tspan id="tspan107" y="20.579815" x="0 7.33464 13.4505 17.117821 29.174957 35.290817 38.354237 44.470097 49.971077 53.034496 59.150356 70.548698 76.664558 82.780418 91.117531 97.233391 100.90071 107.01657 112.51755 118.63341 124.74927 127.81269 139.86983 145.32909 151.44495 155.11226 158.17569 160.62422 163.68764 166.13618 171.63716 177.75302 183.86888 195.86563 201.98149 213.97824 219.47922 225.59508 231.71094 237.8268 241.56 247.68025 256.62238 262.12775 274.12558 280.24582 286.36609 288.81903 291.27194 296.77731 302.89758 306.56927 318.56714 321.02554 333.02341 339.14145 342.81317 348.93341 354.43878 356.89172 362.39709 365.4649 377.46277 383.58081 395.57864 401.69672 410.03491 418.013 424.13324 430.25351 432.70642 438.82669 447.9884 454.10864 460.22888 463.29672 475.29456 481.4126">Paraefectosdelpresentecertificadodeseguro,seaplicaráloprevistoenelReglamentode</tspan><tspan id="tspan109" y="30.839525" x="0 8.5534201 14.66928 20.170259 23.233681 25.68222 31.79808 43.076736 49.194794 60.413059 68.330734 74.446594 80.562454 86.678314 92.794174 98.295158 101.35857 112.57684 118.6927 129.97136 139.12868 145.24454 148.91187 154.41284 160.5287 166.64456 177.86282 183.97868 190.09454 197.65318 204.98782 207.43636 212.93733 216.00076 222.11662 231.27394 242.4922 249.21416 251.6627 257.77856 263.89441 270.01028 275.51126 277.95981 284.07565 287.74298 293.85883 302.08066 308.19653 314.31238 317.97971 324.09555 330.21143 336.32727 342.44315 353.66141 359.77728 365.89313 374.71335 377.1619 388.44055 396.37909 402.49496 407.99594 414.11179 416.56033 422.67621 428.17719 430.62573 436.74158 448.02023 455.35489 462.68951 475.16937 483.10791">GestióndeConductadeMercadodelSistemaFinanciero,aprobadoporlaResoluciónSBSN°</tspan><tspan id="tspan111" y="41.099239" x="0 6.11586 12.23172 18.34758 24.46344 28.13076 34.24662 40.36248 46.47834 52.5942">3274-2017.</tspan></text>
<text id="text113" style="font-variant:normal;font-weight:bold;font-stretch:normal;font-size:10.97999954px;font-family:Arial;-inkscape-font-specification:Arial-BoldMT;writing-mode:lr-tb;fill:#000000;fill-opacity:1;fill-rule:nonzero;stroke:none" transform="matrix(1,0,0,-1,42.060366,790.94122)"><tspan id="tspan115" y="0" x="0 7.3489141 10.426608 18.994303 26.343216 34.260895 42.23896 45.316654 56.29446 64.247276 71.596191 81.378273 89.356339 97.877914 105.85599 112.59002 120.5077 128.46051 135.12207 146.76418 154.74223 165.12273 172.50238 179.8513 188.41899 196.33667 204.31474 212.88243">VIGENCIADELCONTRATODESEGURO:</tspan></text>
<text id="text117" style="font-variant:normal;font-weight:normal;font-stretch:normal;font-size:10.97999954px;font-family:Arial;-inkscape-font-specification:ArialMT;writing-mode:lr-tb;fill:#000000;fill-opacity:1;fill-rule:nonzero;stroke:none" transform="matrix(1,0,0,-1,42.540192,773.96175)"><tspan id="tspan119" y="0" x="0 7.3368359 9.7875719 15.905628 22.023684 28.141741 33.644917 36.095654 46.714409 52.832466 58.950523 64.453697 70.571754 76.689812 84.312126 90.430183 96.548241 102.66629 108.78435 114.9024 121.02046 127.13852 133.25658 139.37463 145.49269 151.61075 157.72881 163.84685 169.9649 186.76321 194.70395 200.82201 204.49152 210.60957 218.23189 224.34995 230.468 233.53362 239.65167 245.76973 254.92924 262.55157 269.93121 272.38196 278.5 284.61807 290.73611 296.23929 298.69003 309.3681 315.48615 321.60419 327.10736 330.173 336.29105 343.91336 350.03143 356.14948 362.26752 368.38559 374.50363 380.6217 386.73975 392.85782 398.97586 405.09393 411.21198 417.33005 423.44809 434.06686 444.7449 447.20331 457.88138 460.9437 467.06174 472.56491 478.68298 489.36102 495.4791">Vigenciadesde:_______________Hora:12:00m.Vigenciahasta:______________olafechaen</tspan><tspan id="tspan121" y="11.099682" x="0 6.1180558 12.236112 24.294348 30.412403 38.811005 46.147842 51.651016 57.769073 63.887131 70.005188 73.674706 79.792755 85.910812 97.969048 104.0871 106.53784 112.04102 118.15907 124.27713 129.7803 141.83855 144.29697 156.35519 162.47325 168.59131 174.70937 186.76761 189.21834 192.28395 201.44347 203.89421 206.95982 219.01807 225.13611 237.19435 243.31241 249.43047 253.09998 262.25949 268.37756 274.49561 280.61368 286.73172 292.23489 294.68564 300.80368 309.80508 312.26352 324.32175 330.43982 336.55786 348.61609 354.73416 360.23734 366.35538 370.0249 373.69443 385.75266 391.8707 395.54022 397.99097 407.15048 413.26852 416.93805 429.05667 436.97437 443.09241 446.76193 452.87997 461.88138 467.99945 474.11749 477.18311 483.30118 489.41922 498.57874">queelAseguradoalcancelaedadlímitedepermanencia,loqueocurraprimeroHora:12:00m.</tspan></text>
<text id="text123" style="font-variant:normal;font-weight:bold;font-stretch:normal;font-size:10.97999954px;font-family:Arial;-inkscape-font-specification:Arial-BoldMT;writing-mode:lr-tb;fill:#000000;fill-opacity:1;fill-rule:nonzero;stroke:none" transform="matrix(1,0,0,-1,42.060366,731.42194)"><tspan id="tspan125" y="0" x="0 7.9681859 15.885864 22.635269 31.218336 41.598827 49.576897 59.95739 66.679344 77.65715 85.635216 92.999504 100.36378 108.88537 116.85355 124.82174 132.73941 140.7076 149.29066 157.20834">DATOSDELAASEGURADORA</tspan></text>
<text id="text127" style="font-variant:normal;font-weight:normal;font-stretch:normal;font-size:9px;font-family:Arial;-inkscape-font-specification:ArialMT;writing-mode:lr-tb;fill:#000000;fill-opacity:1;fill-rule:nonzero;stroke:none" transform="matrix(1,0,0,-1,323.16,695.3003)"><tspan id="tspan129" y="0" x="0 6.4782 8.5166998 12.9969 15.4791 18.456301 20.494801 22.976999">Distrito</tspan><tspan id="tspan131" y="11.0997" x="0 6.4745998 11.5128 16.493401 21.531601 24.505199 26.983801 31.964399 39.438 44.418598 49.456799 51.935398">Departamento</tspan><tspan id="tspan133" y="22.1994" x="0 5.4675002 10.44">Fax</tspan><tspan id="tspan135" y="33.2397" x="0 6.4782 11.5164 14.526 17.466299 22.482901 29.981701 35.997299 37.975498 42.9921 47.5047 49.966202 52.9659 57.944698 62.982899 64.961098 69.461098">CorreoElectrónico</tspan><tspan id="tspan137" y="-3.9968029e-015" x="82.199699 87.181198 93.181503 98.160301 105.6591 108.1206 112.6206 114.6591 119.6379 122.6376">:SanIsidro</tspan><tspan id="tspan139" y="11.0997" x="82.199699 87.181198 92.160004 94.198502 101.6388">:Lima</tspan><tspan id="tspan141" y="22.1994" x="82.199699 87.181198 92.163597 97.146004 102.1842 105.1596 110.142 115.1244 120.1626">:421-0555</tspan><tspan id="tspan143" y="33.2397" x="82.199699 87.181198 92.160004 94.642197 99.680397 104.6646 109.1448 111.1833 116.1621 121.2003 126.1791 128.21761 132.71761 134.6958 136.7343 141.71851 146.7567 149.23891 154.2231 163.40221 166.4019 168.3801 175.8573 180.84151 185.3217 187.80389 192.2841 197.2683 204.7455 207.22771 212.2659">:atencionalcliente@rimac.com.pe</tspan><tspan id="tspan145" y="-22.139999" x="-280.62 -274.63229 -270.14761 -265.15891 -260.1207 -255.132 -252.1503 -247.16161 -242.1234 -237.1347 -234.153">Aseguradora</tspan><tspan id="tspan147" y="-11.0403" x="-280.62 -274.14182 -267.6033">RUC</tspan><tspan id="tspan149" y="-9.9920072e-015" x="-280.62 -274.12289 -272.12579 -269.1297 -264.12659 -259.6275 -255.1284 -253.1313 -248.1282">Dirección</tspan><tspan id="tspan151" y="11.0997" x="-280.62 -274.6134 -271.61279 -266.60519 -262.10159 -260.10001 -255.09241 -250.58881 -248.5872">Provincia</tspan><tspan id="tspan153" y="22.1994" x="-280.62 -275.14081 -270.15659 -268.1181 -263.13931 -260.6571 -255.6729 -250.68871">Teléfono</tspan><tspan id="tspan155" y="33.2397" x="-280.62 -274.59451 -269.61569 -264.5892 -262.61099 -257.5845 -250.146 -241.6275 -236.6487">PáginaWeb</tspan><tspan id="tspan157" y="-22.139999" x="-221.1003 -216.1188 -209.64059 -207.64439 -200.1492 -195.147 -188.1873 -182.12759 -177.1254 -172.1232 -167.121 -164.12579 -159.1236 -152.16389 -145.14391 -138.64771 -133.64549 -128.6433 -124.1451 -119.1006 -114.093 -109.0854 -106.0848 -101.0772 -94.1175 -91.116898 -86.109299 -77.588997 -71.582397 -65.575798 -59.569199 -52.563599 -46.062 -39.560398 -33.553799 -27.0522 -20.0466 -13.545 -7.5384002">:RimacSegurosyReaseguros(LAASEGURADORA)</tspan><tspan id="tspan159" y="-11.0403" x="-221.1003 -216.1188 -211.14 -206.16119 -201.123 -196.1442 -191.106 -186.1272 -181.14841 -176.1102 -171.13139 -166.0932">:20100041953</tspan><tspan id="tspan161" y="-9.9920072e-015" x="-221.1003 -216.1188 -211.131 -206.1432 -199.1232 -193.1364 -188.14861 -183.1104 -178.13161 -173.0934 -171.1152 -166.077 -159.11729 -152.5788 -146.5182 -141.5304 -136.4922 -131.50439 -126.5229 -120.5361 -118.4976 -114.0138 -106.515">:LasBegoniasN°475,Piso3</tspan><tspan id="tspan163" y="11.0997" x="-221.1003 -216.1188 -211.14 -209.1015 -201.66119">:Lima</tspan><tspan id="tspan165" y="22.1994" x="-221.1003 -216.1188 -211.1364 -206.15401 -201.1158 -198.1404 -193.158 -188.1756 -183.13741">:411-1000</tspan><tspan id="tspan167" y="33.2397" x="-221.1003 -216.1188 -209.64059 -203.14259 -196.64461 -194.14259 -191.1456 -189.1476 -181.6506 -176.64661 -172.14661 -169.64461 -165.14461 -160.14059 -152.6436 -150.1821 -145.14391">:www.rimac.com.pe</tspan></text>
<text id="text169" style="font-variant:normal;font-weight:bold;font-stretch:normal;font-size:10.97999954px;font-family:Arial;-inkscape-font-specification:Arial-BoldMT;writing-mode:lr-tb;fill:#000000;fill-opacity:1;fill-rule:nonzero;stroke:none" transform="matrix(1,0,0,-1,42.06,640.7003)"><tspan id="tspan171" y="0" x="0 7.9780679 15.895746 22.603428 31.14477 41.525261 49.50333 56.825893 66.607971 74.534439 83.075775 92.221024 99.600677 107.52714 115.50521 118.55655 126.53461 133.24229 136.29364 143.00133 150.92778 158.90585 167.48782">DATOSDELCOMERCIALIZADOR</tspan></text>
<text id="text173" style="font-variant:normal;font-weight:normal;font-stretch:normal;font-size:9px;font-family:Arial;-inkscape-font-specification:ArialMT;writing-mode:lr-tb;fill:#000000;fill-opacity:1;fill-rule:nonzero;stroke:none" transform="matrix(1,0,0,-1,42.54,626.3003)"><tspan id="tspan175" y="0" x="0 6.4808998 11.5191 16.002001 20.988899 28.4877 34.487999 39.526199 44.026199 46.007099 51.0453">RazónSocial</tspan><tspan id="tspan177" y="11.0403" x="0 5.4675002 10.44 12.4785 17.4573 19.979099 24.957899 29.996099">Teléfono</tspan><tspan id="tspan179" y="22.139999" x="0 6.4782 13.0167">RUC</tspan><tspan id="tspan181" y="33.180302" x="0 6.4970999 8.4941998 11.4903 16.493401 20.9925 25.4916 27.488701 32.491798">Dirección</tspan><tspan id="tspan183" y="44.279999" x="0 6.4782 8.5166998 12.9969 15.4791 18.456301 20.494801 22.976999">Distrito</tspan><tspan id="tspan185" y="55.3797" x="0 6.0065999 9.0072002 14.0148 18.5184 20.52 25.527599 30.0312 32.032799">Provincia</tspan><tspan id="tspan187" y="66.419998" x="0 6.4745998 11.5128 16.493401 21.531601 24.505199 26.983801 31.964399 39.438 44.418598 49.456799 51.935398">Departamento</tspan><tspan id="tspan189" y="0" x="59.519699 64.501198 70.503304 76.505402 82.5075 91.027802 97.524902 104.526 111.0231 116.5212 119.0223 125.5194 131.5215 138.0186 143.51669 149.5188">:BBVACONTINENTAL</tspan><tspan id="tspan191" y="11.0403" x="59.519699 64.501198 69.483597 74.466003 79.504204 82.479599 87.461998 92.444397 97.482597">:209-1000</tspan><tspan id="tspan193" y="22.139999" x="59.519699 64.501198 69.480003 74.458801 79.497002 84.4758 89.514 94.492798 99.471603 104.5098 109.4886 114.5268">:20100130204</tspan><tspan id="tspan195" y="33.180302" x="59.519699 64.501198 70.501503 74.987099 79.968597 86.452202 91.490402 96.480003 101.4696 106.5078 108.4914 110.5299 115.0155 122.5143 127.5039 135.0027 140.9913 146.0295 151.0191 156.0087 163.4913 170.9901 175.9689 181.0071 185.9859">:Av.RepúblicadePanamá3055</tspan><tspan id="tspan197" y="44.279999" x="59.519699 64.501198 70.501503 75.480301 82.979103 85.440598 89.940598 91.979103 96.957901 99.957603">:SanIsidro</tspan><tspan id="tspan199" y="55.3797" x="59.519699 64.501198 69.480003 71.518501 78.958801">:Lima</tspan><tspan id="tspan201" y="66.419998" x="59.519699 64.501198 69.480003 71.518501 78.958801">:Lima</tspan></text>
<text id="text203" style="font-variant:normal;font-weight:normal;font-stretch:normal;font-size:10.97999954px;font-family:Arial;-inkscape-font-specification:ArialMT;writing-mode:lr-tb;fill:#000000;fill-opacity:1;fill-rule:nonzero;stroke:none" transform="matrix(1,0,0,-1,56.7,171.5603)"><tspan id="tspan205" y="0" x="0 7.9374418 17.71623 23.216112 29.330873 35.445637 38.507957 44.622719 48.28894 57.445164 59.892605 66.00737 72.122131 81.900917 87.400803 93.515564 103.29435 105.75277 115.53156 121.64961 127.1495 130.21182 136.32658 142.44135 144.88878 151.00356 156.50343 158.95087 165.06563 174.84442 180.96248 190.74127 193.19969 202.97847 209.09323 215.20799 224.38838 232.32582 240.36647 246.48123 252.59599 258.71075 264.82553 274.60431 281.92468 288.03943 294.15421 303.33456 309.44934 319.22812 326.56168 330.22791 336.34265 339.40497 345.51974 351.01962 356.5195 358.96695 365.0817 374.8605 380.97525 390.75406 398.6915 404.80624 407.86856 413.98334 423.1637 430.54337 436.65814 440.32434 445.82422 451.939 458.05377 464.16852 466.61597 472.73071 481.9111">DeconformidadconloestablecidoenlaLeyN°29733-LeydeProteccióndeDatosPersonalesy</tspan><tspan id="tspan207" y="10.259712" x="0 5.5042739 16.062641 24.004477 30.123631 36.242783 38.694618 44.81377 53.974384 60.09354 66.212692 69.279411 75.39856 82.960487 89.079643 95.198799 97.650627 103.76978 114.32816 119.83243 125.95158 131.45586 136.96013 140.63074 143.08258 149.20174 159.8205 165.93854 172.83618 178.95424 182.62485 188.744 194.24828 200.36743 206.48659 209.5533 220.17206 226.29121 232.41037 237.91464 244.0338 253.19441 259.31357 265.43271 268.49942 274.61859 282.18051 288.29965 294.41882 300.53796 306.65714 317.21548 319.66733 325.78647 328.85321 334.97235 338.64297 347.80359 353.92273 360.0419 370.66064 380.62061 386.73865 397.35742 402.87708 413.43542 418.95508 425.07422 431.19339 436.69766 442.8168 448.93597 452.00269 454.45453 463.61514 466.06696 472.18613 478.30527 481.37198">suReglamento,quiensuscribeelpresentedocumento,quedainformadoydasuconsentimiento</tspan><tspan id="tspan209" y="20.519424" x="0 2.451834 4.9036679 11.022822 14.693436 20.81259 29.873285 35.992439 39.663055 45.782207 51.286484 53.738316 59.857471 68.918167 75.035126 80.539398 86.658554 90.329163 96.448318 101.95259 108.07175 117.13245 119.52938 125.64853 131.76768 137.88684 144.006 147.07271 152.57698 158.69614 164.20041 176.31793 188.43547 190.89279 197.01195 200.07866 206.19781 209.86842 219.02904 225.14819 231.26735 237.38651 246.54053 252.65968 258.77884 262.44946 274.56918 280.68832 289.14731 292.21075 295.88135 302.00052 305.06723 311.18637 320.34698 322.79883 328.91797 335.03714 338.10385 350.28287 361.74377 364.81049 368.48111 374.60028 380.71942 386.22369 389.29041 395.40958 399.08017 405.19934 411.31848 416.82275 419.2746 425.39374 434.45663 440.57581 446.69495 452.19922 454.65106 460.7702 466.88937 473.00851 481.4675">libre,previo,expreso,inequívocoeinformado,paraeltratamientoytransferencia,nacionale</tspan><tspan id="tspan211" y="30.839525" x="0 2.451834 8.5709877 11.637702 17.756857 21.427469 27.546623 33.665779 39.170052 41.621887 47.741039 53.860195 59.979347 67.237129 73.356285 84.274796 89.779068 95.898224 106.21832 112.33748 118.45663 121.52335 127.6425 137.90221 144.02136 150.14052 153.81113 159.31541 165.43456 171.55371 177.67287 180.12471 186.24385 196.56396 202.68312 209.94089 216.06004 222.1792 228.29836 233.80263 244.66075 250.77881 261.69733 267.81647 273.93564 277.00235 283.12149 293.44159 299.56076 310.47928 313.54599 315.9978 319.06451 325.18369 327.63553 333.75467 337.42529 339.87711 345.99628 352.11542 363.03394 369.15308 380.07159 388.01343 391.08014 400.24075 407.5787 420.35721 427.69516 435.03308 443.58981 451.53165 459.47348 468.03018 480.1499">internacionaldesusdatospersonalesalbancodedatosdetitularidaddeRIMACSEGUROSY</tspan><tspan id="tspan213" y="41.099239" x="0 7.9517159 15.299532 22.647348 29.995165 37.342979 45.909576 53.861294 61.813007 70.379601 81.719749 85.400246 89.239952 95.368988 105.56721 112.91502 120.26284 127.61066 136.17726 144.12897 152.08069 159.4285 167.38022 175.94681 183.89853 191.24635 195.08606 198.80608 205.88818 212.01721 218.14626 228.28409 234.41312 239.92728 243.00388 249.11974 252.78705 262.9249 269.04074 275.15662 277.60513 283.10611 289.22198 295.33783 305.53607 311.65192 321.78976 327.29074 333.40662 342.94711 349.06519 352.1286 354.57715 360.07813 362.52667 368.64252 374.75839 384.29889 394.43674 400.55478 403.00333 408.5043 414.62018 421.09836 427.21423 433.33008 438.83109 441.2796 447.39548 453.51132 459.6272 466.10538 472.22125 478.3371 484.45297">REASEGUROS("LaASEGURADORA"),queestaráubicadoensusoficinasanivelnacionalque,</tspan><tspan id="tspan215" y="51.419338" x="0 5.505372 11.625624 17.745876 20.198809 26.319059 32.439312 35.507126 41.627377 50.789089 56.90934 63.029591 66.097404 76.955528 82.475174 88.595421 99.453545 104.95892 111.07917 117.19942 119.65235 125.77261 131.89285 134.34579 140.46605 148.86574 154.98599 158.0538 161.72552 172.58363 178.70389 184.82414 187.89195 198.75008 204.87033 210.99059 221.90909 228.02934 234.1496 240.26985 242.72278 248.84303 252.51474 263.37286 266.43518 272.55545 278.06082 280.51373 282.96667 285.41962 288.48743 294.60767 298.27939 303.78476 314.70328 325.5614 328.01981 338.87793 341.33636 347.4566 351.12833 357.24857 368.16708 374.28732 385.14545 387.59839 398.45651 402.12823 408.24847 410.70142 416.82166 422.32703 424.77997 430.90021 441.75833 444.21127 450.33151 454.00323 457.07104 463.19131 465.64423 471.1496 482.00772">conjuntamenteconcualquierotrodatoquepudierafacilitarsealolargodelarelaciónjurídicay</tspan><tspan id="tspan217" y="61.67905" x="0 6.1180558 12.236112 18.354168 24.472223 26.92296 29.373695 35.491753 44.852203 50.970257 57.088314 60.153931 66.271988 72.390045 74.840775 80.958832 87.076889 96.43734 102.5554 112.45387 115.51949 121.63754 127.75559 133.87366 136.93927 143.05733 152.41777 158.53583 164.039 169.54218 175.66023 181.16341 183.61415 189.73221 192.18294 198.30099 207.66145 213.7795 220.01724 226.1353 232.25336 238.37141 240.82214 243.27287 248.77606 254.89412 261.79614 267.29932 277.19778 280.2634 283.93292 290.05096 293.11658 299.23465 302.90417 309.02222 318.98108 324.48425 330.60229 340.50079 342.9592 349.07727 358.43771 361.50333 363.95407 370.07211 376.19019 378.6409 381.09164 387.20969 393.32776 399.4458 405.56387 414.92432 421.04239 431.00122 437.11929 443.23734 449.35541 451.80615 454.25687 459.76004 465.87811 473.37854 475.82928 481.94733">aquellosobtenidosenfuentesaccesiblesalpúblico,setrataránconlasfinalidadesdeanalizarlas</tspan><tspan id="tspan219" y="71.999153" x="0 5.505372 7.9583039 11.630016 17.135387 23.25564 29.375893 34.881264 37.949078 44.069328 50.189579 55.69495 58.147884 64.268135 73.507805 79.625862 85.863602 91.383247 97.503494 99.956429 106.07668 112.19694 115.86864 121.9889 129.36856 134.87393 140.99419 147.11443 150.18225 153.85396 159.97421 163.04202 169.16228 178.46233 183.98198 190.10223 199.94031 202.39325 212.29172 219.63074 226.96977 234.30881 242.86662 250.79967 258.74261 266.08163 274.02457 282.58237 290.5253 297.86435 304.6478 310.76804 316.88828 322.39368 325.46149 327.9144 334.03467 340.15491 346.27518 353.71631 356.16925 366.06882 371.57419 377.69443 383.8147 386.88251 390.5542 396.67447 399.74228 405.86252 411.36789 413.82083 419.94107 429.78024 439.08142 445.20056 450.70593 456.8262 459.27911 465.39938 471.51962 478.96078 481.4137">circunstanciasalcelebrarcontratosconlaASEGURADORA,gestionarlacontrataciónyevaluarla</tspan><tspan id="tspan221" y="82.258865" x="0 5.5031762 11.621232 14.071968 16.522703 22.64076 28.758816 42.077557 48.195614 54.313667 63.911285 69.414459 75.532516 79.202034 84.705208 87.155945 92.659119 95.109856 101.22791 111.48982 118.81019 124.31336 126.7641 135.92361 138.37436 143.87753 153.03705 159.15511 169.35661 171.80736 185.1261 192.46294 199.79976 207.1366 215.69221 223.63295 231.57368 238.91052 246.85126 255.40688 263.34763 277.86755 283.98563 287.05124 289.50198 291.9527 294.40344 299.90662 306.02469 309.69418 323.01294 325.46368 331.58173 344.24167 350.35971 356.47778 359.5434 365.66144 378.32138 384.43945 390.5575 394.22702 399.73019 405.84824 411.96631 418.08435 420.5351 426.65317 439.31308 444.81628 450.93433 464.19269 467.255 469.70572 475.82379 481.94183">calidaddelservicio.Asimismo,laASEGURADORAutilizarálosdatospersonalesconfines</tspan><tspan id="tspan223" y="92.518578" x="0 5.5009799 11.61684 20.77416 26.89002 30.557341 36.058319 38.506859 44.622719 47.071259 53.187119 58.688099 68.709549 81.129021 87.244881 93.360741 99.476601 101.92514 104.37369 109.87466 112.3232 115.38663 121.50249 125.16981 127.61835 133.73421 146.15369 159.17157 162.23499 164.68353 177.70142 183.81947 196.83736 200.55739 206.67325 215.83057 218.2791 221.34253 223.79106 234.35052 236.79907 242.91493 245.97835 252.09421 255.76154 264.91885 271.0347 276.53571 278.98422 285.1001 298.11798 303.63763 309.75348 315.86935 319.53665 332.55457 338.67261 342.33994 348.45578 354.57166 360.6875 366.18848 369.25192 375.36777 387.78726 400.20673 405.72638 411.84222 415.50955 421.01053 423.45908 428.96005 431.4086 437.52444 449.94394 456.05978 462.17566 475.19354 481.30939">comerciales,ypublicitariosafinderemitirinformaciónsobreproductosyserviciosqueLa</tspan><tspan id="tspan225" y="102.83868" x="0 7.337934 14.675868 22.013802 30.570517 38.512348 46.454185 53.792118 61.733952 70.290665 78.232498 88.672287 94.191933 100.31108 106.43024 111.93451 114.38634 120.5055 126.62466 130.29527 139.47345 145.59151 154.76968 160.28934 169.46751 171.92593 178.04509 181.1118 187.23096 190.90158 197.02072 202.52501">ASEGURADORAconsideredesuinterés.</tspan><tspan id="tspan227" y="-337.32098" x="0 6.1235461 15.841944 23.184271 30.526596 37.868923 46.430027 54.376255 62.322479 69.664803 77.611031 86.172134 94.118362 105.03797 111.15603 120.27602 123.93565 130.0592 135.56787 141.69141 147.81496 153.93851 159.44717 165.57071 171.69426 174.15048 183.86888 186.93121 190.60622 196.72975 202.8533 205.92441 215.64281 221.76086 227.81853 235.19818 242.54051 249.88284 258.44394 266.39017 274.3364 281.67871 289.62494 301.80725 307.92532 317.7041 320.10214 329.82053 335.34018 341.46371 347.58728 353.71082 357.38583 360.45694 366.58047 370.25549 379.97388 385.48254 391.60608 397.72964 400.80075 404.47574 410.5993 413.67041 419.79395 425.91748 435.63589 444.75589 450.87393 460.59235 463.65466 469.7782 475.90173 482.0253">LaASEGURADORAesresponsablefrentealASEGURADOdelacoberturacontratadaydetodos</tspan><tspan id="tspan229" y="-327.06125" x="0 2.4529319 8.573184 17.753563 23.871618 27.543329 31.215042 37.335293 41.007008 47.127258 56.307636 66.145714 72.263771 81.425484 83.823517 89.328888 91.781822 97.902069 104.02232 110.14258 119.38225 125.50249 135.28128 141.40154 147.52179 157.35986 159.81281 165.93306 171.43843 177.55869 181.23039 184.9021 194.74019 200.86043 206.97849 214.92142 221.04167 230.20338 236.32364 239.99535 245.50072 247.95366 254.07391 256.52682 258.97977 264.48514 270.60541 276.72565 282.84589 286.51761 293.29996 298.76031 301.21326 311.05133 317.17157 323.29184 326.96353 329.41647 335.53671 337.98965 343.49503 345.89307 355.73114 361.85138 371.68948 374.1424 380.26266 389.44302 393.16306 399.28329 404.78867 410.90894 417.02917 423.14944 428.65482 434.77505 440.89532 443.34824 445.80118 448.25412 454.37436 460.4946 466.61487 472.73511 481.9155">loserroresuomisionesenqueincurraelComercializador;sinperjuiciodelasresponsabilidadesy</tspan><tspan id="tspan231" y="-316.80154" x="0 6.1180558 12.236112 14.686848 17.137585 23.25564 29.373695 34.876873 37.327606 43.445663 49.563721 55.681774 64.261551 70.379601 76.497658 85.675842 88.126579 97.304764 102.80794 108.92599 112.5955 116.26502 122.38308 127.88625 134.00432 140.12238 146.24042 152.35847 158.47653 164.59459">obligacionesquelecorresponden.</tspan></text>
<text id="text233" style="font-variant:normal;font-weight:bold;font-stretch:normal;font-size:10.97999954px;font-family:Arial;-inkscape-font-specification:Arial-BoldMT;writing-mode:lr-tb;fill:#000000;fill-opacity:1;fill-rule:nonzero;stroke:none" transform="matrix(1,0,0,-1,45.359856,188.60236)"><tspan id="tspan235" y="0" x="0 6.7263479 12.848796 22.026978 28.149426 34.271873 40.394321 46.516769 55.69495 62.414711 69.076279 75.198723 84.376907 91.103256 100.28144 107.62267 111.91145 118.57302 122.29305 128.4155 134.53793 140.66039 143.73039 150.39197 160.17404 166.83562 176.01379 183.95892 190.08138 193.75528 200.48163 209.65981 216.98018 223.10262 227.3914 233.51385 240.17542 246.90176 253.02422 256.09424 262.21667 271.39487 280.57303 286.6911 296.41278 304.39087 310.51331 317.23965 320.30966 326.4321 336.21091 342.33334 348.9949 352.66882 359.33038">Ley29733-LeydeProteccióndeDatosPersonalesysuReglamento:</tspan></text>
<text id="text237" style="font-variant:normal;font-weight:bold;font-stretch:normal;font-size:10.02000046px;font-family:Arial;-inkscape-font-specification:Arial-BoldMT;writing-mode:lr-tb;fill:#000000;fill-opacity:1;fill-rule:nonzero;stroke:none" transform="matrix(1,0,0,-1,42.54,471.8603)"><tspan id="tspan239" y="0" x="0 2.761512 5.5230241">ii.</tspan></text>
<text id="text241" style="font-variant:normal;font-weight:normal;font-stretch:normal;font-size:10.97999954px;font-family:Arial;-inkscape-font-specification:ArialMT;writing-mode:lr-tb;fill:#000000;fill-opacity:1;fill-rule:nonzero;stroke:none" transform="matrix(1,0,0,-1,56.7,378.5003)"><tspan id="tspan243" y="0" x="0 6.1180558 12.236112 21.176027 27.294085 33.41214 39.530197 45.648251 54.64856 60.766613 63.83223 69.950287 75.453461 78.519081 84.637131 90.755188 96.873245 102.9913 111.99161 118.10966 124.22772 131.36801 133.81876 139.93681 148.93712 156.27394 163.61078 170.94762 179.50323 187.44397 195.3847 202.72154 210.66228 219.2179 230.01782 239.55615 242.62177 248.73982 252.40933 257.91251 264.03058 267.70007 273.81815 282.81845 288.93649 295.05457 300.55774 306.67578 310.34531 316.46338 322.58142 328.69946 334.81754 343.75745 349.87552 355.99356 361.93155 368.04959 374.16766 380.28571 386.40378 392.88525 399.00333 404.88202 412.82275 418.9408 428.10031 434.21838 437.88788 443.39105 445.8418 451.95987 454.41058 456.86133 462.3645 468.48257 474.60062 480.71869 484.38818">LospagosefectuadosporlosASEGURADOSotercerosencargadosdelpago,alComercializador,</tspan><tspan id="tspan245" y="10.259712" x="0 5.5031762 14.68026 20.183435 26.301493 32.419548 37.922726 40.373459 46.491516 52.609573 56.279087 62.397144 66.066658 72.184715 81.361801 87.479858 93.597916 99.715965 105.83402 111.95208 118.07014 124.18819 132.76686 141.94395 148.06091 157.23799 164.61655 171.95338 179.29022 187.84584 195.78658 203.72731 211.06415 219.00488 227.5605 235.50124 242.83807">seconsideraránabonadosaLaASEGURADORA.</tspan><tspan id="tspan247" y="-36.840096" x="0 6.1213498 12.2427 24.002279 29.508751 35.6301 44.792912 50.914261 57.03561 59.489639 64.996109 71.117462 76.623932 79.077957 85.19931 91.320663 97.442009 109.20159 114.70806 120.82941 124.50222 130.0087 136.13004 142.25139 148.37274 160.13232 166.25368 172.37502 182.27458 184.72862 190.84998 202.60954 209.92992 217.27005 224.61017 233.16908 241.11311 249.05714 256.39728 264.34131 272.93973 286.50003 298.85803 306.19705 313.5361 321.47903 328.81805 335.54221 338.61002 346.55295 349.62076 356.95981 364.90274 367.97055 376.52835 390.14795 396.26599 404.90396 412.88205 419.00229 428.164 434.28424 437.95596 443.46133 445.91428 452.03452 454.48746 456.9404 462.44577 468.56601 474.68625 480.80652 484.47824">LascomunicacionescursadasporlosASEGURADOSoBENEFICIARIOSalComercializador,</tspan><tspan id="tspan249" y="-26.580383" x="0 5.5031762 11.621232 17.739288 21.408804 30.94713 37.065186 42.568363 48.686417 54.804474 60.307652 63.373264 69.491325 78.37085 82.090874 88.208931 90.65966 96.777718 102.2809 104.73163 110.84969 116.96774 123.0858 129.20386 135.32191 144.26183 149.765 155.88306 165.42139 171.53944 177.41814 182.93777 189.05583 195.17389 201.29195 204.96147 214.49979 220.01944 226.1375 232.25555 235.32117 238.99068 245.10873 248.17435 254.2924 260.41046 266.52853 273.01001 276.07562 282.1937 288.31174 294.42981 298.0993 304.21738 313.75571 316.20642 322.32449 331.2644 340.3844 342.83511 348.33832 357.49783 363.61588 372.55579 378.67386 381.73947 387.85751 393.36069 396.4263 402.54437 411.48428 417.60233 423.7204 433.25873 438.7619 444.64059 450.75864 456.87671 462.99475 465.4455 471.56354 475.23306 481.35114">sobreaspectosrelacionadosconelsegurocontratado,tendránlosmismosefectosquesihubieran</tspan><tspan id="tspan251" y="-16.320671" x="0 5.5075679 7.9626961 14.085144 23.263327 29.385775 33.059681 39.182129 44.689697 50.812145 56.934593 60.004601 66.127052 72.249496 78.371948 86.951721 96.129898 98.588326 107.7665 115.08687 122.4281 129.76933 138.32933 146.27446 154.21959 161.56082 169.50595 178.06595 186.01108 193.35231">sidopresentadasalaASEGURADORA.</tspan></text>
<text id="text253" style="font-variant:normal;font-weight:bold;font-stretch:normal;font-size:10.02000046px;font-family:Arial;-inkscape-font-specification:Arial-BoldMT;writing-mode:lr-tb;fill:#000000;fill-opacity:1;fill-rule:nonzero;stroke:none" transform="matrix(1,0,0,-1,42.54,415.1603)"><tspan id="tspan255" y="0" x="0 2.761512 5.5230241 8.2845364">iii.</tspan><tspan id="tspan257" y="36.839531" x="0 2.7464819 8.2785244">iv.</tspan></text>
<text id="text259" style="font-variant:normal;font-weight:normal;font-stretch:normal;font-size:10.97999954px;font-family:Arial;-inkscape-font-specification:ArialMT;writing-mode:lr-tb;fill:#000000;fill-opacity:1;fill-rule:nonzero;stroke:none" transform="matrix(1,0,0,-1,56.7,350.1804)"><tspan id="tspan261" y="0" x="0 7.3368359 13.33521 20.672047 28.008883 35.345718 43.901333 51.842072 59.782806 67.119644 75.060379 87.182297 96.341812 102.45987 108.57793 111.02866 114.09428 116.54501 122.66307 128.16624 131.23186 140.88988 146.39305 156.05106 162.16911 167.67229 173.79034 179.9084 182.97401 189.09207 194.59525 197.04597 203.16403 212.88243 219.00049 224.50366 230.62172 234.29124 240.4093 245.91248 255.63087 261.74893 267.86697 271.5365 281.19452 287.31256 293.4306 303.14902 305.59976 311.7178 320.8378 326.29816 332.4162 341.57571 347.69379 353.81183 356.26257 361.76575 367.88379 373.38696 375.83771 381.95578 388.07382 394.19189 403.25146 406.92099 413.03906 415.48978 421.60785 427.11102 429.56177 435.67981 441.79788 447.91592 454.03397 460.15204 469.21164 478.86963 481.32806">ElASEGURADOmanifiestasuaceptaciónexpresaparaquelascomunicacionesrelacionadasala</tspan><tspan id="tspan263" y="10.320102" x="0 7.3368359 13.454892 15.905628 18.356363 23.859541 35.138195 41.256252 47.37431 53.492363 59.61042 65.728477 77.007133 82.510307 88.628365 97.448601 101.10823 107.22629 116.3858 118.83654 121.90215 124.35289 130.47095 136.589 147.26926 158.60719 161.00523 172.34319 178.46123 180.91197 184.58148 190.69954 196.20271 201.70589 204.15663 210.27469 221.55334 227.6714 238.95006 244.45323 250.57129 254.2408 257.91031 264.02838 275.36633 281.48438 283.93512 290.05316 295.55634 298.62195 302.29147 308.40955 314.52759 316.97833 322.48151 333.76016 339.8782 345.99628 357.27493 363.39297 374.73093 380.2341 382.68484 388.80289 400.08154 405.58472 411.70279 417.82083 423.32401 425.77475 431.89282 438.01086 444.12894 450.24698 461.52563 467.64368 478.92233 485.04041">Pólizapuedanserremitidasaladireccióndecorreoelectrónicoquehasidoconsignadoenel</tspan><tspan id="tspan265" y="20.579815" x="0 6.122448 9.7963562 15.918804 21.426373 27.54882 33.671268 36.741276 50.599133 56.721581 62.844028 68.351601 74.474045 83.637955 89.760399 95.882851 98.952858 105.07531 115.87743 121.99988 135.85774 143.19896 150.54019 157.88142 166.44142 174.38655 182.33168 189.67291 197.61804 206.17805 214.12317 229.18335 232.85725 238.97971 248.1436 250.59874 253.66875 256.14035 259.80765 273.66553 279.1665 285.28235 294.43967 300.55554 306.67139 309.11993 314.62091 320.73679 326.23776 328.68631 334.80215 340.91803 347.03387 360.29333 366.40918 371.91016 377.41113 381.07846 383.52701 386.59042 392.7063 405.96683 412.0827 422.28091 428.39679 434.51263 443.66995 446.1185 451.61948 454.06802 456.51657 458.96509 472.82297 478.93881 485.05469">presentedocumento.LaASEGURADORAremitirácomunicacionesescritasaldomiciliodel</tspan><tspan id="tspan267" y="30.839525" x="0 7.9176779 16.499645 24.453558 31.115124 39.069035 46.419048 53.154179 60.504192 68.458107 75.193237 89.113678 94.633324 97.71212 110.49064 117.84065 125.19067 132.54068 141.10947 149.02715 156.98106 164.33107 172.28499 180.85378 190.51508 196.63313 209.35127 214.87091 221.00215 226.51849 239.23663 245.35469 258.13321 263.58038 276.35892 281.87857 287.99442 294.11029 299.61127 302.05981 308.17566 314.29153 327.07004 333.18591 339.30176 352.0199 358.13577 360.58429 364.25162 370.36749 375.86847 381.36945 383.81799 389.93384 402.71237 408.82822 411.27676 417.39261 422.89362 425.95703 429.62433 435.7402 441.85605 444.3046 449.80557 455.92145 465.58273 471.70081 481.42249">CONTRATANTEy/oASEGURADO,encasonoseconsigneunadirecciónelectrónica,o,a</tspan><tspan id="tspan269" y="41.15963" x="0 6.1268401 12.25368 17.76564 20.225161 25.73712 28.19664 34.323479 45.122311 51.240368 56.752327 62.879166 66.557465 72.684303 78.196266 88.995094 95.121933 105.98006 108.43958 119.23841 126.58403 133.92964 141.27527 149.83966 157.78918 165.73871 173.08434 181.03384 189.59825 197.54778 204.89339 212.63539 218.76222 229.56105 232.63545 238.7623 242.4406 251.51996 262.31879 268.43793 274.5571 277.00894 282.51321 284.96503 291.0842 297.20334 303.32251 310.4606 321.25943 323.71786 334.51669 340.03632 346.15549 355.3161 361.43524 367.55441 370.00623 375.5105 381.62967 387.13394 389.58578 395.70493 406.50375 412.62292 415.07474 421.19391 426.69818 429.76489 433.43549 439.55466 445.6738 448.12564 453.62991 464.48804 475.28687 481.40494">decisiónexpresadelaASEGURADORA,enformaadicionalalacomunicaciónelectrónicaoen</tspan><tspan id="tspan271" y="51.419338" x="0 5.5042739 11.623428 17.127703 29.484594 31.936428 44.29332 50.412476 56.531628 60.202244 69.362854 75.48201 78.548721 81.000557 86.504829 88.956665 95.075821 101.19498 113.55186 119.05614 121.50797 127.62713 133.74628 139.86543 142.93214 155.28905 157.74637 170.10326 176.22021 181.72449 184.17633 186.62816 192.74731 202.04848 209.36774 221.72462 227.24318 233.36234 238.86661 251.2235 257.34045 266.03772 273.35699 280.69492 288.03284 296.58957 304.5314 312.47324 319.81116 327.75299 342.57379 348.69296 361.04984 367.16901 373.28815 379.40732 385.52646 397.88336 404.0025 410.12167 413.79227 416.24411 426.14258 428.59442 434.71356 446.41275 452.52972 456.20035 461.70462 467.82376 470.2756 475.77988 481.89902">casolanormatividadvigenteloexija.EncasoelASEGURADOnopuedaabrirlosarchivos</tspan><tspan id="tspan273" y="61.739441" x="0 6.119154 12.238308 14.690142 20.809296 26.92845 29.995165 36.114319 46.254349 56.992786 66.173164 72.29232 78.411476 80.863312 83.930023 86.381859 92.501007 98.620163 109.41899 114.92327 125.66171 131.78087 134.2327 137.90331 144.02246 149.52673 155.03101 157.48285 163.60201 174.34044 180.45959 191.25842 196.7627 202.88185 206.55246 210.22308 216.34224 227.08067 233.19873 235.65056 241.76971 247.27399 250.34071 254.01132 260.13046 266.24963 268.70148 274.20575 280.32489 288.0065 294.12564 300.24481 306.36395 312.48312 316.15372 326.89218 329.35059 335.46976 338.53647 344.65561 348.32623 357.48685 363.60599 371.94641 378.06445 380.5163 386.02057 392.13971 398.25888 408.3989 413.90317 416.35501 419.42172 425.54089 431.66003 437.16431 439.61615 445.73529 451.85446 457.9736 468.17401 478.91248 481.37088">adjuntosomodifiquesudireccióndecorreoelectrónico,deberáinformardichassituacionesala</tspan><tspan id="tspan275" y="71.999153" x="0 5.5042739 7.9561081 14.075262 20.194416 22.64625 28.765404 34.88456 37.951271 49.77124 55.890396 58.342232 62.012844 68.131996 73.636269 79.140549 81.592377 87.711533 99.531502 105.65066 117.47063 122.9749 129.09406 132.76466 136.43529 142.55444 154.3744 160.49356 162.94539 169.06454 174.56882 177.63554 181.30615 187.42531 193.54446 195.99629 201.50056 207.61972 216.38286 222.50201 225.56873 231.68788 237.80704 243.31131 245.76314 251.88229 258.00146 264.12061 266.57245 272.07672 274.52853 276.98038 283.09955 289.21869 292.2854 298.40457 309.56354 313.23413 315.68597 324.84659 330.96576 336.47003 339.53674 345.04102 351.16016 360.32077 363.38748 369.50665 375.62579 384.38895 396.20889 401.72964 407.84882 417.00943 423.12857 429.24774 431.69955 437.20383 443.323 449.44214 455.56131 461.68045 467.18472 479.0036 485.12274">siguientedireccióndecorreoelectrónico:atencionalcliente@rimac.com.pe,ocomunicándoseal</tspan><tspan id="tspan277" y="82.31926" x="0 6.1169581 12.233916 18.350874 22.019293 28.13625 34.253208 40.370167 46.487125 54.289513 61.625252 67.127327 69.576965 78.735382 81.18502 86.687103 95.84552 101.96248 109.70448 115.22412 126.08224 131.5426 137.65956 146.81798 152.93494 156.60335 162.72031 171.87872 177.99568 181.0602 191.91832 202.71715 211.87556 217.99252 224.10948 227.17401 233.29095 239.40791 245.52487 253.86528 259.98224 265.48431 268.54883 270.99847 276.50055 287.29938 292.80145 303.60028 309.10239 315.21933 321.33627 327.45325 330.51776 341.37589 347.49393 358.29279 363.81241 369.92938 373.59781 377.2662 383.38318 394.2413 400.35934 402.80899 408.92593 414.42801 417.49255 421.16095 427.27792 433.39487 435.84451 441.34659 447.46356 455.20554 461.32251 467.43945 471.10788 473.55753 481.95721">411-1111.Asimismo,secomprometeamanteneractivasucuentadecorreoelectrónico,abriry</tspan><tspan id="tspan279" y="92.578964" x="0 2.451834 8.5709877 14.690142 22.13019 28.249344 34.3685 37.435211 43.554367 49.673519 52.125355 58.244507 64.363663 73.524277 79.643433 85.762581 88.8293 98.727768 101.18619 107.30534 116.54501 122.04929 128.16844 137.32906 143.44821 149.56737 152.0192 157.52347 163.64262 169.1469 171.59874 177.7179 183.83704 189.95619 199.19586 205.31502 207.76686 213.886 219.39029 222.457 226.12761 232.24677 238.36592 240.81775 246.32202 252.44118 261.68085 270.9809 276.4852 282.60434 291.84399 297.96207 301.63269 307.13696 313.2561 315.70795 321.21222 327.33136 336.63144 342.75058 348.86975 351.32156 357.44073 363.55988 366.62659 372.74576 378.25003 385.09164 388.75128 394.87045 400.37473 402.82657 408.33084 414.44998 421.89005 427.39432 433.51346 442.75311 448.87228 454.99142 461.1106 467.22974 473.34891 475.80072 481.91989">leerdetenidamentelascomunicacioneselectrónicasysusarchivosadjuntos,revisarsusbandejas</tspan><tspan id="tspan281" y="102.83868" x="0 6.119154 17.818344 23.322618 29.441772 33.112385 36.783001 42.902153 54.601345 60.720497 63.172333 69.291489 74.795761 77.862473 81.533089 87.652245 93.771393 96.223228 101.7275 107.84666 116.49011 118.88924 125.0084 130.51266 132.96451 139.08366 144.58794 147.03976 152.54404 164.30362 166.75546 172.8746 183.97539 190.09454 196.2137 202.33286 208.45201 214.57117 217.02299 223.14215 234.24294 240.36208 252.06128 258.18042 264.29959 267.3663 271.0369 277.15607 283.27521 294.9744 306.0752 312.19434 323.89352 329.41428 335.53342 339.20404 342.87466 348.9938 355.11298 366.21375 372.33289 384.03207 390.15125 396.27039 401.77466 407.89383 414.01297 420.13214 426.25128 431.75555 440.39902 446.51816 452.02243 460.66479 466.16907 472.28824 481.44885">decorreoelectrónico,inclusivelasbandejasdeentradaydecorreosnodeseados,asícomo</tspan><tspan id="tspan283" y="113.15878" x="0 3.6684179 9.7853756 15.287454 17.737091 23.23917 29.356129 36.375641 38.834064 48.252708 54.369667 60.486626 62.93626 66.000778 69.0653 71.514938 77.017014 86.494949 92.611908 102.03056 105.09507 107.54471 109.99435 113.05886 116.72728 126.14593 135.56458 141.68263 144.13226 150.24922 156.36618 162.48314 168.6001 178.01874 184.1357 193.55434 199.05643 208.53436 214.65132 218.31973 224.43669 229.93877 236.05573 242.17268 248.28964 254.4066 261.36682 267.4838 276.90244 282.40451 288.52145 292.18988 297.69196 300.1416 305.64368 308.09332 317.57126 323.6882 333.10684 338.60892 344.72589 348.39429 352.06271 358.17969 367.59833 373.71637 376.16602 382.28296 387.78506 390.84958 394.51797 400.63495 406.75189 409.20154 414.70361 420.82059 427.1824 430.24472 436.36166 442.47864 451.89728 458.01422 464.1312 470.24814 476.36511 478.81473 481.26437">revisarlapolíticadefiltroobloqueodesuproveedordeserviciodecorreoelectrónico,todoaquello</tspan><tspan id="tspan285" y="123.41849" x="0 5.5042739 11.623428 22.541941 28.659996 35.978165 42.097321 48.216473 50.668308 56.78746 59.854176 70.831978 76.950035 87.868546 93.986603 97.053314 99.50515 101.95699 104.40882 109.91309 116.03225 124.49234 130.6115 136.11577 139.18248 150.16028 159.32089 165.44005 171.5592 174.01105 184.98885 191.1069 202.0847 207.60435 213.72351 222.88412 229.00327 235.12242 237.57426 243.07854 249.19769 254.70197 257.15381 263.27295 274.25076 280.3699 282.82175 288.94089 294.44516 297.51187 301.1825 307.30167 313.42081 315.81885 321.32312 332.3009 338.42007 349.39789 358.5585 364.67764 370.79678 376.91595 380.58658 391.56436 397.08401 403.20316 409.32233 414.8266 417.27844 419.67645 422.1283 433.10611 443.42621 449.54425 452.61096 455.06281 460.56708 463.01892 469.13806 475.25723 478.32394 484.44308">conelobjetodeutilizarestemediodecomunicaciónelectrónicademanerasencillayeficiente,</tspan><tspan id="tspan287" y="133.7386" x="0 6.1169581 12.233916 15.902334 25.080517 27.538939 33.655895 42.235668 45.300186 47.749825 53.866783 59.983742 68.563515 74.680473 78.348885 84.465843 90.582802 96.69976 102.81672 108.31879 111.38332 117.50027 123.00235">paralosfinespropuestos.</tspan></text>
</g></svg>
