00_ALTER_TBG002_PLANTILLA.sql
01_CONFIGURACION_KIT_CORRIENTE.sql
02_TBG001_KIT_PLANTILLA_010001.sql
02_TBG001_KIT_PLANTILLA_010002.sql
02_TBG001_KIT_PLANTILLA_010008.sql
02_TBG001_KIT_PLANTILLA_010031.sql
02_TBG001_KIT_PLANTILLA_010032.sql
02_TBG001_KIT_PLANTILLA_010034.sql
02_TBG001_KIT_PLANTILLA_010041.sql
02_TBG001_KIT_PLANTILLA_010042.sql
02_TBG001_KIT_PLANTILLA_010091.sql
02_TBG001_KIT_PLANTILLA_010092.sql
02_TBG001_KIT_PLANTILLA_010093.sql
02_TBG001_KIT_PLANTILLA_010094.sql
03_TBG003_SECCION_BG011.sql
03_TBG003_SECCION_BG0A1.sql
03_TBG003_SECCION_BG281.sql
03_TBG003_SECCION_BG481.sql
03_TBG003_SECCION_BG531.sql
04_TBG004_ITEM_BG011_PAG1.sql
04_TBG004_ITEM_BG011_PAG2.sql
04_TBG004_ITEM_BG0A1.sql
04_TBG004_ITEM_BG281_PAG1.sql
04_TBG004_ITEM_BG281_PAG2.sql
04_TBG004_ITEM_BG481_PAG1.sql
04_TBG004_ITEM_BG481_PAG2.sql
04_TBG004_ITEM_BG531_PAG1.sql
04_TBG004_ITEM_BG531_PAG2.sql
05_FLAG_PLANTILLA_CTA_CTE.sql
06_TIPO_PLANTILLA.sql
07_TBG010.sql
08_TBG011.sql
09_TBG012.sql
ls.txt
